%YAML 1.1
%TAG !u! tag:unity3d.com,2011:
--- !u!1045 &1
EditorBuildSettings:
  m_ObjectHideFlags: 0
  serializedVersion: 2
  m_Scenes:
  - enabled: 1
    path: Assets/Scenes/title-screen.unity
    guid: 477729e429e980b4b84273f15cfb3bbe
  - enabled: 1
    path: Assets/Scenes/dev/very-simple-level-completion.unity
    guid: 686862390d5cf734690b6d8c5b4d576d
